EESchema Schematic File Version 4
LIBS:multisensor_plate-cache
EELAYER 30 0
EELAYER END
$Descr A4 11693 8268
encoding utf-8
Sheet 1 1
Title "Multisensor"
Date "2019-07-27"
Rev ""
Comp ""
Comment1 ""
Comment2 ""
Comment3 ""
Comment4 ""
$EndDescr
$Comp
L multisensor_plate-rescue:WeMos_mini-Wemos U1
U 1 1 5D3C76DB
P 5650 3600
F 0 "U1" H 5650 4343 60  0000 C CNN
F 1 "WeMos_mini" H 5650 4237 60  0000 C CNN
F 2 "Wemos:wemos-d1-mini-connectors-only" H 6200 2900 60  0001 C CNN
F 3 "http://www.wemos.cc/Products/d1_mini.html" H 5650 4131 60  0000 C CNN
	1    5650 3600
	1    0    0    -1  
$EndComp
$Comp
L multisensor_plate-rescue:DHT11-Sensor U2
U 1 1 5D3C7AF2
P 6750 3650
F 0 "U2" H 6521 3604 50  0000 R CNN
F 1 "DHT11" H 6521 3695 50  0000 R CNN
F 2 "Sensor:Aosong_DHT11_5.5x12.0_P2.54mm" H 6900 3900 50  0001 C CNN
F 3 "http://akizukidenshi.com/download/ds/aosong/DHT11.pdf" H 6900 3900 50  0001 C CNN
	1    6750 3650
	-1   0    0    1   
$EndComp
$Comp
L multisensor_plate-rescue:MHZ19-mh_z19 J1
U 1 1 5D3C8162
P 3950 4200
F 0 "J1" H 3925 4275 50  0000 C CNN
F 1 "MHZ19" H 3925 4184 50  0000 C CNN
F 2 "MH-Z19:MH-Z19" H 3950 4200 50  0001 C CNN
F 3 "" H 3950 4200 50  0001 C CNN
	1    3950 4200
	1    0    0    -1  
$EndComp
Wire Wire Line
	3600 4450 3400 4450
Wire Wire Line
	3400 4450 3400 3750
Wire Wire Line
	3400 3750 5150 3750
Wire Wire Line
	3600 4550 3300 4550
Wire Wire Line
	3300 4550 3300 3650
Wire Wire Line
	3300 3650 5150 3650
Wire Wire Line
	5150 3250 3200 3250
Wire Wire Line
	3200 3250 3200 4750
Wire Wire Line
	3200 4750 4250 4750
Wire Wire Line
	4250 4750 4250 4650
Wire Wire Line
	4250 4750 4450 4750
Connection ~ 4250 4750
NoConn ~ 6150 3250
NoConn ~ 6150 3350
NoConn ~ 6150 3850
NoConn ~ 6150 3950
NoConn ~ 5150 3950
NoConn ~ 5150 3850
NoConn ~ 5150 3550
NoConn ~ 5150 3450
NoConn ~ 4250 4450
NoConn ~ 3600 4350
NoConn ~ 3600 4650
$Comp
L power:PWR_FLAG #FLG01
U 1 1 5D3C94EC
P 2550 2750
F 0 "#FLG01" H 2550 2825 50  0001 C CNN
F 1 "PWR_FLAG" H 2550 2924 50  0000 C CNN
F 2 "" H 2550 2750 50  0001 C CNN
F 3 "~" H 2550 2750 50  0001 C CNN
	1    2550 2750
	1    0    0    -1  
$EndComp
$Comp
L power:GND #PWR01
U 1 1 5D3C9517
P 2550 2750
F 0 "#PWR01" H 2550 2500 50  0001 C CNN
F 1 "GND" H 2555 2577 50  0000 C CNN
F 2 "" H 2550 2750 50  0001 C CNN
F 3 "" H 2550 2750 50  0001 C CNN
	1    2550 2750
	1    0    0    -1  
$EndComp
$Comp
L power:VCC #PWR02
U 1 1 5D3C9590
P 2800 2750
F 0 "#PWR02" H 2800 2600 50  0001 C CNN
F 1 "VCC" H 2818 2923 50  0000 C CNN
F 2 "" H 2800 2750 50  0001 C CNN
F 3 "" H 2800 2750 50  0001 C CNN
	1    2800 2750
	-1   0    0    1   
$EndComp
$Comp
L power:PWR_FLAG #FLG02
U 1 1 5D3C95C1
P 2800 2750
F 0 "#FLG02" H 2800 2825 50  0001 C CNN
F 1 "PWR_FLAG" H 2800 2924 50  0000 C CNN
F 2 "" H 2800 2750 50  0001 C CNN
F 3 "~" H 2800 2750 50  0001 C CNN
	1    2800 2750
	1    0    0    -1  
$EndComp
$Comp
L power:VCC #PWR0101
U 1 1 5D3C973D
P 4450 4750
F 0 "#PWR0101" H 4450 4600 50  0001 C CNN
F 1 "VCC" H 4467 4923 50  0000 C CNN
F 2 "" H 4450 4750 50  0001 C CNN
F 3 "" H 4450 4750 50  0001 C CNN
	1    4450 4750
	1    0    0    -1  
$EndComp
$Comp
L power:GND #PWR0102
U 1 1 5D3C97A9
P 4650 4550
F 0 "#PWR0102" H 4650 4300 50  0001 C CNN
F 1 "GND" H 4655 4377 50  0000 C CNN
F 2 "" H 4650 4550 50  0001 C CNN
F 3 "" H 4650 4550 50  0001 C CNN
	1    4650 4550
	-1   0    0    1   
$EndComp
$Comp
L power:GND #PWR0103
U 1 1 5D3C97DA
P 6850 3250
F 0 "#PWR0103" H 6850 3000 50  0001 C CNN
F 1 "GND" H 6855 3077 50  0000 C CNN
F 2 "" H 6850 3250 50  0001 C CNN
F 3 "" H 6850 3250 50  0001 C CNN
	1    6850 3250
	-1   0    0    1   
$EndComp
Wire Wire Line
	4650 4550 4250 4550
$Comp
L power:GND #PWR0104
U 1 1 5D3C9A08
P 4900 3350
F 0 "#PWR0104" H 4900 3100 50  0001 C CNN
F 1 "GND" H 4905 3177 50  0000 C CNN
F 2 "" H 4900 3350 50  0001 C CNN
F 3 "" H 4900 3350 50  0001 C CNN
	1    4900 3350
	1    0    0    -1  
$EndComp
Wire Wire Line
	5150 3350 4900 3350
Connection ~ 4450 4750
NoConn ~ 6150 3450
Wire Wire Line
	6850 3350 6850 3250
Wire Wire Line
	4450 4750 6850 4750
Wire Wire Line
	6850 4750 6850 3950
NoConn ~ 6150 3750
NoConn ~ 6150 3550
Wire Wire Line
	6450 3650 6150 3650
$EndSCHEMATC
